{
   "count":10,
   "amount":250,
   "num_items":8,
   "gender":{  
      "F":{  
         "count":3,
         "amount":150,
         "num_items":3
      },
      "M":{  
         "count":7,
         "amount":100,
         "num_items":5
      }
   },
   "currency":{  
      "EUR":{  
         "count":2,
         "amount":50,
         "num_items":2
      },
      "USD":{  
         "count":5,
         "amount":150,
         "num_items":5
      },
      "GBP":{  
         "count":3,
         "amount":50,
         "num_items":1
      }
   },
   "weekOfYear":{
      "49":{
         "count":5,
         "amount":200,
         "num_items":5
      },
      "50":{
         "count":5,
         "amount":100,
         "num_items":3
      }
   },
   "source": "internal data",
   "status": "approved",
   "emptyness":""
}